{
  "restaurants": [
    {
      "id": 1,
      "name": "Mission Chinese Food",
      "neighborhood": "Manhattan",
      "photograph": "1.jpg",
      "address": "171 E Broadway, New York, NY 10002",
      "distance": 16.2,
      "cuisine_type": "Asian",
      "reviews": [
        {
          "name": "Steve",
          "date": "October 26, 2016",
          "rating": 4,
          "comments": "Mission Chinese Food has grown up from its scrappy Orchard Street days into a big, two story restaurant equipped with a pizza oven, a prime rib cart, and a much broader menu. Yes, it still has all the hits — the kung pao pastrami, the thrice cooked bacon —but chef/proprietor Danny Bowien and executive chef Angela Dimayuga have also added a raw bar, two generous family-style set menus, and showstoppers like duck baked in clay. And you can still get a lot of food without breaking the bank."
        },
        {
          "name": "Morgan",
          "date": "October 26, 2016",
          "rating": 4,
          "comments": "This place is a blast. Must orders: GREEN TEA NOODS, sounds gross (to me at least) but these were incredible!, Kung pao pastrami (but you already knew that), beef tartare was a fun appetizer that we decided to try, the spicy ma po tofu SUPER spicy but delicous, egg rolls and scallion pancake i could have passed on... I wish we would have gone with a larger group, so much more I would have liked to try!"
        },
        {
          "name": "Jason",
          "date": "October 26, 2016",
          "rating": 3,
          "comments": "I was VERY excited to come here after seeing and hearing so many good things about this place. Having read much, I knew going into it that it was not going to be authentic Chinese. The place was edgy, had a punk rock throwback attitude, and generally delivered the desired atmosphere. Things went downhill from there though. The food was okay at best and the best qualities were easily overshadowed by what I believe to be poor decisions by the kitchen staff."
        }
      ]
    },
    {
      "id": 2,
      "name": "Emily",
      "neighborhood": "Brooklyn",
      "photograph": "2.jpg",
      "address": "919 Fulton St, Brooklyn, NY 11238",
      "distance": 7.2,
      "cuisine_type": "Pizza",
      "reviews": [
        {
          "name": "Steph",
          "date": "October 26, 2016",
          "rating": 4,
          "comments": "Five star food, two star atmosphere. I would definitely get takeout from this place - but dont think I have the energy to deal with the hipster ridiculousness again. By the time we left the wait was two hours long."
        },
        {
          "name": "Steve",
          "date": "October 26, 2016",
          "rating": 4,
          "comments": "This cozy Clinton Hill restaurant excels at both straightforward and unusual wood-fired pizzas. If you want a taste of the latter, consider ordering the Emily, which is topped with mozzarella, pistachios, truffled sottocenere cheese, and honey. The menu includes salads and a handful of starters, as well as a burger that some meat connoisseurs consider to be among the best in the city."
        },
        {
          "name": "Sam",
          "date": "October 26, 2016",
          "rating": 5,
          "comments": "5 star atmosphere as it is very cozy with great staff. 5 star food as their Emmy burger is outrageously good. and its on a pretzel bun.. Too juicy for its own good and downright addicting. Also try the Colony pizza. Many others looked like worth competitors, but the Colony really found its way to my heart. when you start with a great crust, top it with top notch cheese and sauce, you've got a winner. But, if you go a step further and add the salty from the pepperoni, the sweet from the honey, and the spicy from the chili oil.... your mouth is confused and happy at the same time."
        }
      ]
    },
    {
      "id": 3,
      "name": "Kang Ho Dong Baekjeong",
      "neighborhood": "Manhattan",
      "photograph": "3.jpg",
      "address": "1 E 32nd St, New York, NY 10016",
      "distance": 10.5,
      "cuisine_type": "Asian",
      "reviews": [
        {
          "name": "Steve",
          "date": "October 26, 2016",
          "rating": 4,
          "comments": "The tables at this 32nd Street favorite are outfitted with grills for cooking short ribs, brisket, beef tongue, rib eye, and pork jowl. The banchan plates are uniformly good, and Deuki Hong’s menu also includes winning dishes like stir-fried squid noodles, kimchi stew, and seafood pancakes. If it’s available, make sure to order the kimchi and rice “lunchbox.” Baekjeong is a great place for large groups and birthday parties."
        },
        {
          "name": "ZS",
          "date": "October 26, 2016",
          "rating": 5,
          "comments": "I've been to Korea before and many other Korean BBQ places. We had the regular pork belly and a beef (forgot which cut) and a seafood tofu soup. Two meat and a soup was just prefect for the two of us. We could have done one meat and one soup. The portions of the meat are great! The beef was juicy, tender and so good. The sides were excellent. "
        },
        {
          "name": "Emily",
          "date": "October 26, 2016",
          "rating": 2,
          "comments": "MEH. I've tried their Jersey location as well but Kang Ho Dong meat quality is severely decreasing. A Korean bbq place with whatever meat? I think NOT!"
        }
      ]
    },
    {
      "id": 4,
      "name": "Katz's Delicatessen",
      "neighborhood": "Manhattan",
      "photograph": "4.jpg",
      "address": "205 E Houston St, New York, NY 10002",
      "distance": 1.5,
      "cuisine_type": "American",
      "reviews": [
        {
          "name": "Steve",
          "date": "October 26, 2016",
          "rating": 5,
          "comments": "In 127 years, little has changed at Katz's. It remains one of New York's — and the country's — essential Jewish delicatessens. Every inch of the massive Lower East Side space smells intensely of pastrami and rye loaves. The sandwiches are massive, so they are best when shared. Order at the counter, and don't forget to tip your slicer — your sandwich will be better for it."
        },
        {
          "name": "Allen",
          "date": "October 26, 2016",
          "rating": 5,
          "comments": "If I lived in NY and got diabetes from eating here every single time I ate, I would do it over and over and over again just for that first bite. These guys know how to make a sandwich. The heart attack comes free of charge! Came by while I was visiting NYC. First pit-stop when I come back :)!"
        },
        {
          "name": "David",
          "date": "October 26, 2016",
          "rating": 2,
          "comments": "Ok so four of us came. One more later who didn't order becauase it's so expensive and simple. Seriously, a bunch of meat albeit you can sample beforehand on rye/white/wheat bread. Cheese extra. Pickles free, you can just ask them at the pickup counter. But seriously 20 bucks gone for an non-flavored half sandwich. And a line that is long, especially if you want seating. I'm down to just take a quick look where Sally and Harry sat and leave to the other delis all around NYC. Oh and they accept Samsung pay."
        }
      ]
    },
    {
      "id": 5,
      "name": "Roberta's Pizza",
      "neighborhood": "Brooklyn",
      "photograph": "5.jpg",
      "address": "261 Moore St, Brooklyn, NY 11206",
      "distance": 0.6,
      "cuisine_type": "Pizza",
      "reviews": [
        {
          "name": "Steve",
          "date": "October 26, 2016",
          "rating": 4,
          "comments": "Roberta's is the epicenter of the modern Brooklyn food scene.The pizzas are fantastic, but the restaurant really flexes its muscles with the vegetable dishes. In addition to the pies, consider ordering the radishes, the romaine salad, the roasted beets, and some of the charcuterie."
        },
        {
          "name": "Raymond",
          "date": "October 26, 2016",
          "rating": 4,
          "comments": "Roberta's, one of the better pizzas I have had in my life. Very trendy and hipsterish spot. Came here for lunch on a random weekday afternoon and when we arrived, there was a line forming already. The space is a bit cramped. You'll get to know your neighbors soon enough. The pizza is just delightful and delicious. It's a ncie plus that you get to see them firing up the pizzas in the corner. The major issue with Roberta's is the trek out to the Williamsburg/Bushwick."
        },
        {
          "name": "Laurel",
          "date": "October 26, 2016",
          "rating": 4,
          "comments": "The pizza is fantastic, not THE best I've ever had, but would definitely go back since it has great food and great ambiance. Definitely worth going to. It has A LOT of hype in the New York food scene, and I question if it deserves all of it, but it's still a totally great spot to hit up when in the area!!"
        }
      ]
    },
    {
      "id": 6,
      "name": "Hometown BBQ",
      "neighborhood": "Brooklyn",
      "photograph": "6.jpg",
      "address": "454 Van Brunt St, Brooklyn, NY 11231",
      "distance": 2.0,
      "cuisine_type": "American",
      "reviews": [
        {
          "name": "Steve",
          "date": "October 26, 2016",
          "rating": 4,
          "comments": "Barbecue aficionados agree that Billy Durney is cooking up some of the best Texas-style barbecue in the city. Straightforward classics like smoked brisket and baby back ribs are always a strong choice, but there are also options like pork belly tacos and a lamb belly banh mi. The space is sprawling in a way that feels like the real deal, and Durney himself can usually be found working the room, and keeping a watchful eye on the smoking meats. It's counter service only, and there's often a line, but for the scene and certainly for the meat, it's easily worth the trip to Red Hook."
        },
        {
          "name": "Michelle",
          "date": "October 26, 2016",
          "rating": 4,
          "comments": "Overall, a great try of New York BBQ. The restaurant décor is rustic with a good amount of seats to sit and enjoy the meal. I definitely would love to come back and try that monster of a beef rib!"
        },
        {
          "name": "Ai-Mei",
          "date": "October 26, 2016",
          "rating": 4,
          "comments": "mmmmmm, what a gem this is in bklyn! I loveeee how soft their brisket is here. Their pork tacos are to die for, their different variety of ribs and lastly, their lamb is not gamey at all. Super wallet friendly for the amount they give you. I highly recommend this spot- after eating here, you can definitely walk over for Steve's key lime pies."
        }
      ]
    },
    {
      "id": 7,
      "name": "Superiority Burger",
      "neighborhood": "Manhattan",
      "photograph": "7.jpg",
      "address": "430 E 9th St, New York, NY 10009",
      "distance": 4.6,
      "cuisine_type": "American",
      "reviews": [
        {
          "name": "Steve",
          "date": "October 26, 2016",
          "rating": 4,
          "comments": "Brooks Headley’s tiny East Village cafe is so much more than a veggie burger spot — it's one of the best bang-for-your-buck restaurants in Lower Manhattan. Headley and his crew turn seasonal vegetables into delectable salads and riffs on American comfort food favorites. The specials menu changes daily, and the rest of the menu is constantly evolving. You can get a lot of food to eat here for under $15 per person."
        },
        {
          "name": "Gabriel",
          "date": "October 26, 2016",
          "rating": 5,
          "comments": "I was turned on to this place following the glowing NYT review. Its near my area of the city so I figured why not go? Man they weren't kidding, Superiority Burger is probably the best vegetarian experience I've ever had!"
        },
        {
          "name": "Shivi",
          "date": "October 26, 2016",
          "rating": 4,
          "comments": "Great flavors and very satisfying. Craving a sandwich, I stopped by on a Friday night with a vegetarian friend. Super small location with just a few seats inside. Ambiance is a bit industrial, good is definitely much more sophisticated than the look of the place! Ordered the superiority burger anda side of potato salad. The potato salad was very light and tasted clean ( less mayo, lots of dill and some cucumber) -- refreshing for a humid summer night! Sandwich was surprisingly delicious - it is very small ( funny allusion to a White Castle burger) but it packs a punch! Not only are there layers of flavors ( amazing sauces) but the party itself had a great texture Ahmed flavor-- well done and so wonderful! Will definitely stop by again for an overall amazing burger/sandwich. Staff was super nice and accommodating but not out of the way friendly."
        }
      ]
    },
    {
      "id": 8,
      "name": "The Dutch",
      "neighborhood": "Manhattan",
      "photograph": "8.jpg",
      "address": "131 Sullivan St, New York, NY 10012",
      "distance": 25.0,
      "cuisine_type": "American",
      "reviews": [
        {
          "name": "Steve",
          "date": "October 26, 2016",
          "rating": 4,
          "comments": "Over the last five years, The Dutch has turned into the quintessential American restaurant that chef Andrew Carmellini and partners Josh Pickard and Luke Ostrom sought to evoke when it first opened. It’s a great choice when you’re craving a steak, a burger, or oysters, and the menu always includes plentiful seafood options as well as pastas. The Dutch is now an indelible part of the Soho landscape."
        },
        {
          "name": "Loren",
          "date": "October 26, 2016",
          "rating": 4,
          "comments": "I randomly came here on a Saturday night. I was pleasantly surprised with the food and the service. We had the calamari and the ceviche with avocado, and then the catfish. Oh! Then we had the banana soufflé for dessert with ice cream. It was all delicious and well put together. Would love to eat here again."
        },
        {
          "name": "Lori",
          "date": "October 26, 2016",
          "rating": 4,
          "comments": "Aside from the slightly claustrophobic dining area and the fact that you may have difficulty hearing your dining companion, I'd return to The Dutch without hesitation. The food is surprisingly well-executed and conceived, and our dinner service flowed smoothly without a hitch. Just make sure to get a reservation in advance, as I'm sure more than just a few other people will have the same idea."
        }
      ]
    },
    {
      "id": 9,
      "name": "Mu Ramen",
      "neighborhood": "Queens",
      "photograph": "9.jpg",
      "address": "1209 Jackson Ave, Queens, NY 11101",
      "distance": 8.2,
      "cuisine_type": "Asian",
      "reviews": [
        {
          "name": "Steve",
          "date": "October 26, 2016",
          "rating": 4,
          "comments": "Joshua Smookler’s two-year-old ramen shop serves one of the best tonkotsu broths around. Beyond ramen, Mu also offers some high minded plates, like foie gras-stuffed chicken wings, as well as dry-aged Japanese Wagyu beef specials. Mu is just 10 short minutes away from Midtown via the 7-train."
        },
        {
          "name": "Brittany",
          "date": "October 26, 2016",
          "rating": 4,
          "comments": "Overall, I would definitely recommend this place if you enjoy thick curly noodles with a thick, intense broth.  If you don't there are still other options but I can't vouch for those."
        },
        {
          "name": "Sally",
          "date": "October 26, 2016",
          "rating": 4,
          "comments": "One of the tastiest and most unique ramen places I've been to in NYC, but also the priciest. I think overall its worth the try. Not an everyday casual ramen shop though."
        }
      ]
    },
    {
      "id": 10,
      "name": "Casa Enrique",
      "neighborhood": "Queens",
      "photograph": "10.jpg",
      "address": "5-48 49th Ave, Queens, NY 11101",
      "distance": 9.1,
      "cuisine_type": "Mexican",
      "reviews": [
        {
          "name": "Steve",
          "date": "October 26, 2016",
          "rating": 5,
          "comments": "Head to this laid-back Long Island City restaurant for beef tongue tacos, chicken smothered in a heady mole sauce, and a monster crab tostada. New York's only Michelin-starred Mexican restaurant is an especially cool choice for lunch during the week or drinks after work. Eater critic Ryan Sutton awarded this restaurant two stars."
        },
        {
          "name": "Rob",
          "date": "October 26, 2016",
          "rating": 5,
          "comments": "The hype was real. Please go. Get the ceviche. And the tres leches. You're welcome"
        },
        {
          "name": "Jason",
          "date": "October 26, 2016",
          "rating": 4,
          "comments": "For a Michelin star restaurant, it's fairly priced and the food is fairly good. Started with a strawberry margarita which was good in flavor but not much alcohol. Had the chicken enchiladas with salsa verde and it was really good. Great balance in flavor and a good portion. Extra tasty with their hot sauces. My wife had the lamb but it was a bit too salty for our taste. Although, it was cooked very well and fell off the bone. The highlight of the night was the tres leches cake. Probably the best I've ever had to be honest. Not too sweet and very milky. Overall, one of my top 3 favorite Mexican in NY."
        }
      ]
    }
  ]
}